00000000 W __heap_end
00000000 a __tmp_reg__
00000000 a __tmp_reg__
00000000 a __tmp_reg__
00000000 a __tmp_reg__
00000000 a __tmp_reg__
00000000 a __tmp_reg__
00000000 a __tmp_reg__
00000000 a __tmp_reg__
00000000 a __tmp_reg__
00000000 a __tmp_reg__
00000000 a __tmp_reg__
00000000 a __tmp_reg__
00000000 a __tmp_reg__
00000000 a __tmp_reg__
00000000 a __tmp_reg__
00000000 a __tmp_reg__
00000000 a __tmp_reg__
00000000 a __tmp_reg__
00000000 a __tmp_reg__
00000000 a __tmp_reg__
00000000 a __tmp_reg__
00000000 a __tmp_reg__
00000000 a __tmp_reg__
00000000 a __tmp_reg__
00000000 a __tmp_reg__
00000000 a __tmp_reg__
00000000 a __tmp_reg__
00000000 a __tmp_reg__
00000000 a __tmp_reg__
00000000 a __tmp_reg__
00000000 a __tmp_reg__
00000000 a __tmp_reg__
00000000 a __tmp_reg__
00000000 a __tmp_reg__
00000000 a __tmp_reg__
00000000 a __tmp_reg__
00000000 a __tmp_reg__
00000000 a __tmp_reg__
00000000 T __vectors
00000001 a __zero_reg__
00000001 a __zero_reg__
00000001 a __zero_reg__
00000001 a __zero_reg__
00000001 a __zero_reg__
00000001 a __zero_reg__
00000001 a __zero_reg__
00000001 a __zero_reg__
00000001 a __zero_reg__
00000001 a __zero_reg__
00000001 a __zero_reg__
00000001 a __zero_reg__
00000001 a __zero_reg__
00000001 a __zero_reg__
00000001 a __zero_reg__
00000001 a __zero_reg__
00000001 a __zero_reg__
00000001 a __zero_reg__
00000001 a __zero_reg__
00000001 a __zero_reg__
00000001 a __zero_reg__
00000001 a __zero_reg__
00000001 a __zero_reg__
00000001 a __zero_reg__
00000001 a __zero_reg__
00000001 a __zero_reg__
00000001 a __zero_reg__
00000001 a __zero_reg__
00000001 a __zero_reg__
00000001 a __zero_reg__
00000001 a __zero_reg__
00000001 a __zero_reg__
00000001 a __zero_reg__
00000001 a __zero_reg__
00000001 a __zero_reg__
00000001 a __zero_reg__
00000001 a __zero_reg__
00000001 a __zero_reg__
0000003d a __SP_L__
0000003d a __SP_L__
0000003d a __SP_L__
0000003d a __SP_L__
0000003d a __SP_L__
0000003d a __SP_L__
0000003d a __SP_L__
0000003d a __SP_L__
0000003d a __SP_L__
0000003d a __SP_L__
0000003d a __SP_L__
0000003d a __SP_L__
0000003d a __SP_L__
0000003d a __SP_L__
0000003d a __SP_L__
0000003d a __SP_L__
0000003d a __SP_L__
0000003d a __SP_L__
0000003d a __SP_L__
0000003d a __SP_L__
0000003d a __SP_L__
0000003d a __SP_L__
0000003d a __SP_L__
0000003d a __SP_L__
0000003d a __SP_L__
0000003d a __SP_L__
0000003d a __SP_L__
0000003d a __SP_L__
0000003d a __SP_L__
0000003d a __SP_L__
0000003d a __SP_L__
0000003d a __SP_L__
0000003d a __SP_L__
0000003d a __SP_L__
0000003d a __SP_L__
0000003d a __SP_L__
0000003d a __SP_L__
0000003d a __SP_L__
0000003e a __SP_H__
0000003e a __SP_H__
0000003e a __SP_H__
0000003e a __SP_H__
0000003e a __SP_H__
0000003e a __SP_H__
0000003e a __SP_H__
0000003e a __SP_H__
0000003e a __SP_H__
0000003e a __SP_H__
0000003e a __SP_H__
0000003e a __SP_H__
0000003e a __SP_H__
0000003e a __SP_H__
0000003e a __SP_H__
0000003e a __SP_H__
0000003e a __SP_H__
0000003e a __SP_H__
0000003e a __SP_H__
0000003e a __SP_H__
0000003e a __SP_H__
0000003e a __SP_H__
0000003e a __SP_H__
0000003e a __SP_H__
0000003e a __SP_H__
0000003e a __SP_H__
0000003e a __SP_H__
0000003e a __SP_H__
0000003e a __SP_H__
0000003e a __SP_H__
0000003e a __SP_H__
0000003e a __SP_H__
0000003e a __SP_H__
0000003e a __SP_H__
0000003e a __SP_H__
0000003e a __SP_H__
0000003e a __SP_H__
0000003e a __SP_H__
0000003f a __SREG__
0000003f a __SREG__
0000003f a __SREG__
0000003f a __SREG__
0000003f a __SREG__
0000003f a __SREG__
0000003f a __SREG__
0000003f a __SREG__
0000003f a __SREG__
0000003f a __SREG__
0000003f a __SREG__
0000003f a __SREG__
0000003f a __SREG__
0000003f a __SREG__
0000003f a __SREG__
0000003f a __SREG__
0000003f a __SREG__
0000003f a __SREG__
0000003f a __SREG__
0000003f a __SREG__
0000003f a __SREG__
0000003f a __SREG__
0000003f a __SREG__
0000003f a __SREG__
0000003f a __SREG__
0000003f a __SREG__
0000003f a __SREG__
0000003f a __SREG__
0000003f a __SREG__
0000003f a __SREG__
0000003f a __SREG__
0000003f a __SREG__
0000003f a __SREG__
0000003f a __SREG__
0000003f a __SREG__
0000003f a __SREG__
0000003f a __SREG__
0000003f a __SREG__
0000014c t __c.3197
0000016b t __c.3083
00000181 t __c.3077
00000197 t __c.3072
000001ad t __c.3459
000001c9 t __c.3404
000001ec t __c.3402
00000210 t __c.3362
0000023c t __c.3360
00000264 t __c.3358
0000028c t __c.2705
000002a1 t __c.2961
000002a8 t __c.2958
000002b7 t __c.2955
000002c8 t __c.2952
000002e3 t __c.2949
000002fb t __c.2946
0000031b t __c.2943
0000032f t __c.2940
00000340 t __c.2937
00000354 t __c.2934
00000363 t __c.2931
0000037e t __c.2928
0000038a t __c.2925
000003af t __c.2922
000003cd t __c.2919
000003e0 t __c.2916
000003f3 t __c.2913
0000040b t __c.2910
00000421 t __c.2907
0000043c t __c.2904
00000452 t __c.2901
00000466 t __c.2898
0000048d t __c.2894
000004c9 t __c.2891
000004cd t __c.2889
000004d9 t __c.2815
000004e8 t __c.1997
000004ef t __c.1991
00000500 T __ctors_end
00000500 T __ctors_start
00000500 T __dtors_end
00000500 T __dtors_start
00000500 W __init
00000500 T __trampolines_end
00000500 T __trampolines_start
0000050c T __do_copy_data
00000526 T __do_clear_bss
0000052e t .do_clear_bss_loop
00000530 t .do_clear_bss_start
0000053e T __bad_interrupt
0000053e W __vector_10
0000053e W __vector_11
0000053e W __vector_12
0000053e W __vector_14
0000053e W __vector_16
0000053e W __vector_17
0000053e W __vector_18
0000053e W __vector_19
0000053e W __vector_20
0000053e W __vector_21
0000053e W __vector_22
0000053e W __vector_23
0000053e W __vector_24
0000053e W __vector_26
0000053e W __vector_27
0000053e W __vector_28
0000053e W __vector_29
0000053e W __vector_30
0000053e W __vector_31
0000053e W __vector_33
0000053e W __vector_34
0000053e W __vector_35
0000053e W __vector_36
0000053e W __vector_37
0000053e W __vector_38
0000053e W __vector_39
0000053e W __vector_4
0000053e W __vector_40
0000053e W __vector_41
0000053e W __vector_42
0000053e W __vector_43
0000053e W __vector_44
0000053e W __vector_45
0000053e W __vector_46
0000053e W __vector_47
0000053e W __vector_48
0000053e W __vector_49
0000053e W __vector_5
0000053e W __vector_50
0000053e W __vector_51
0000053e W __vector_52
0000053e W __vector_53
0000053e W __vector_54
0000053e W __vector_55
0000053e W __vector_56
0000053e W __vector_6
0000053e W __vector_65
0000053e W __vector_66
0000053e W __vector_67
0000053e W __vector_68
0000053e W __vector_69
0000053e W __vector_7
0000053e W __vector_70
0000053e W __vector_71
0000053e W __vector_8
00000542 T nrk_register_drivers
0000055a T nrk_create_taskset
000005d4 T node_task
00000b52 T main
00000bac T rf_rx_callback
00000bae T bmac_tx_reserve_set
00000bb2 T bmac_tx_reserve_get
00000bb8 T bmac_addr_decode_dest_mac
00000bc4 T bmac_encryption_enable
00000bc8 T bmac_encryption_disable
00000bcc T bmac_set_cca_active
00000bd2 T bmac_rx_pkt_set_buffer
00000bee T bmac_tx_pkt_nonblocking
00000c10 T bmac_rx_pkt_get
00000c3e T bmac_rx_pkt_ready
00000c4c T bmac_rx_pkt_release
00000c54 T bmac_set_rx_check_rate
00000cda T bmac_started
00000ce0 T bmac_rx_failure_count_get
00000cea T bmac_rx_failure_count_reset
00000cfe T _b_pow
00000d1c T bmac_task_config
00000dc4 T _bmac_rx
00000e62 T _bmac_channel_check
00000e90 T _bmac_tx
00000f9a T bmac_get_tx_done_signal
00000fa8 T bmac_get_rx_pkt_signal
00000fb6 T bmac_enable
00000fca T bmac_disable
00000fd4 T bmac_nw_task
000010b6 T bmac_tx_pkt
0000117a T bmac_wait_until_rx_pkt
000011f2 T bmac_set_channel
0000122a T bmac_init
0000130a T bmac_set_cca_thresh
00001318 T bmac_set_rf_power
00001328 T bmac_encryption_set_key
00001338 T bmac_rx_pkt_is_encrypted
0000133e T bmac_addr_decode_set_my_mac
00001346 T bmac_addr_decode_enable
0000134e T bmac_addr_decode_disable
00001356 T bmac_auto_ack_enable
0000135e T bmac_auto_ack_disable
00001366 T bmac_encryption_set_ctr_counter
00001376 T get_status
00001384 T init_adc
000013b2 T calc_true_press
00001726 T calc_true_temp
0000181a T delay
00001824 T get_adc_val
00001850 T read_uncomp_press
000018fe T calc_press
00001910 T read_uncomp_temp
00001978 T calc_temp
00001982 T get_eeprom_values
000019f0 T set_status
00001a5e T close
00001a7c T read
00001c50 T open
00001cb0 T init
00001d0a T dev_manager_ff3_sensors
00001d6c T set_i2c_device
00001d72 T init_i2c
00001d92 T close_i2c
00001da6 T ee24xx_read_bytes
00001ee0 T ee24xx_write_page
00001fe4 T ee24xx_write_bytes
00002040 T error
00002070 T rf_enable_glossy
00002078 T rf_disable_glossy
0000207e T rf_power_down
000020d0 T rf_power_up
000020fc T rf_tx_power
00002110 T rf_addr_decode_enable
0000211c T rf_addr_decode_disable
00002128 T rf_auto_ack_enable
00002134 T rf_auto_ack_disable
00002140 T rf_addr_decode_set_my_mac
00002152 T rf_set_rx
0000216c T rx_start_callback
00002176 T rx_end_callback
00002180 T rf_init
00002280 T rf_rx_on
00002292 T rf_polling_rx_on
000022a4 T rf_rx_off
000022ba T rf_cca_check
00002330 T __vector_64
0000234e T __vector_63
00002372 T __vector_62
00002390 T __vector_61
000023ae T __vector_59
0000240e T __vector_58
0000242c T __vector_57
0000244a T rf_set_cca_thresh
0000245e T rf_security_last_pkt_status
00002462 T rf_security_set_ctr_counter
00002464 T rf_security_set_key
00002466 T rf_security_disable
00002468 T rf_tx_tdma_packet
0000246c T rf_get_sem
00002476 T rf_rx_packet
0000247a T rf_flush_rx_fifo
0000247c T rf_busy
00002480 T rf_rx_check_fifop
00002484 T rf_rx_check_sfd
00002488 T rf_carrier_on
0000248a T rf_carrier_off
0000248c T rf_test_mode
0000248e T rf_data_mode
00002490 T rf_rx_set_serial
00002492 T rf_tx_set_serial
00002494 T rf_set_preamble_length
00002496 T rf_set_cca_mode
00002498 T rf_cc2591_tx_on
000024b4 T rf_cc2591_rx_on
000024d0 T aes_setkey
00002518 T aes_encrypt
000025aa T aes_decrypt
00002666 T rf_rx_packet_nonblock
000027b8 T rf_tx_packet_repeat
00002a6a T rf_tx_packet
00002a74 T rf_glossy_interrupt
00002b7e T __vector_60
00002c18 T nrk_uart_data_ready
00002c4a T nrk_setup_ports
00002c5e T PORT_INIT
00002c72 T nrk_gpio_set
00002d82 T nrk_gpio_clr
00002e8c T nrk_gpio_get
00002f02 T nrk_gpio_toggle
00003146 T nrk_gpio_direction
00003376 T nrk_get_button
00003388 T nrk_led_toggle
000033be T nrk_led_clr
000033f4 T nrk_led_set
0000342a T nrk_gpio_pullups
0000343e T putc0
00003456 T putc1
00003464 T setup_uart0
0000348e T setup_uart1
000034b8 T getc1
000034d0 T nrk_setup_uart
0000352a T nrk_uart_rx_signal_get
0000353e T nrk_kprintf
00003564 T getc0
000035cc T __vector_25
00003670 T halWait
0000367e T write_eeprom_current_image_checksum
0000368e T write_eeprom_aes_key
000036be T write_eeprom_load_img_pages
000036ce T nrk_eeprom_write_byte
000036d4 T read_eeprom_current_image_checksum
000036ec T read_eeprom_aes_key
0000371c T read_eeprom_load_img_pages
00003734 T read_eeprom_channel
0000374c T read_eeprom_mac_address
000037b8 T nrk_eeprom_read_byte
000037be T nrk_int_disable
000037c2 T nrk_int_enable
000037c6 T nrk_halt
000037ca T nrk_version
000037d0 T _nrk_timer_tick
000037d6 T nrk_TCB_init
0000395e T nrk_start
00003a06 T nrk_init
00003b6c T _nrk_errno_set
00003b78 T nrk_errno_get
00003b84 T nrk_error_get
00003ba0 T pause
00003bca T blink_dot
00003be4 T blink_dash
00003c06 T blink_morse_code_error
00003d6a T nrk_error_print
00003e9a T nrk_kernel_error_add
00003ea8 T nrk_error_add
00003ec0 T nrk_stack_check_pid
00003f08 T dump_stack_info
000040bc T nrk_stack_check
00004104 T nrk_signal_create
00004184 T nrk_signal_get_registered_mask
00004196 T nrk_signal_unregister
000041ff W __stack
0000421a T nrk_signal_register
00004288 T nrk_sem_create
000042de T nrk_get_resource_index
000042fa T nrk_sem_delete
0000433c T nrk_sem_query
0000436c T nrk_sem_post
00004432 T nrk_event_signal
00004522 T nrk_signal_delete
0000463a T nrk_sem_pend
000046ec T nrk_event_wait
00004764 T nrk_get_high_ready_task_ID
00004770 T nrk_print_readyQ
00004786 T nrk_add_to_readyQ
000048ee T nrk_rem_from_readyQ
000049a0 T nrk_get_pid
000049ac T _nrk_wait_for_scheduler
000049c0 T nrk_wait
00004a6a T nrk_wait_until
00004b12 T nrk_wait_until_nw
00004b5e T nrk_set_next_wakeup
00004bd2 T nrk_wait_until_ticks
00004c34 T nrk_wait_ticks
00004ca8 T nrk_wait_until_next_n_periods
00004d0c T nrk_wait_until_next_period
00004d62 T nrk_terminate_task
00004d84 T nrk_activate_task
00004e3e T nrk_time_sub
00004f5c T nrk_time_add
00005048 T nrk_time_compact_nanos
0000508e T nrk_time_set
000050b0 T _nrk_time_to_ticks
000051cc T _nrk_ticks_to_time
00005240 T _nrk_time_to_ticks_long
00005356 T nrk_time_get
0000540c T nrk_idle_task
00005458 T _nrk_scheduler
00005a00 T nrk_register_driver
00005a3e T nrk_open
00005adc T nrk_get_status
00005b18 T nrk_set_status
00005b54 T nrk_read
00005b92 T nrk_write
00005bd0 T nrk_close
00005c0e T nrk_spin_wait_us
00005c2c T _nrk_setup_timer
00005cc8 T _nrk_precision_os_timer_stop
00005cce T _nrk_precision_os_timer_start
00005ce2 T _nrk_precision_os_timer_reset
00005cec T _nrk_precision_os_timer_get
00005d12 T _nrk_high_speed_timer_stop
00005d18 T _nrk_high_speed_timer_start
00005d20 T _nrk_high_speed_timer_reset
00005d30 T nrk_high_speed_timer_wait
00005dae T _nrk_high_speed_timer_get
00005dd4 T _nrk_os_timer_stop
00005dea T _nrk_os_timer_set
00005df0 T _nrk_os_timer_start
00005e02 T _nrk_os_timer_reset
00005e16 T _nrk_get_next_wakeup
00005e1e T _nrk_set_next_wakeup
00005e26 T nrk_timer_int_stop
00005e32 T nrk_timer_int_reset
00005e46 T nrk_timer_int_read
00005e5c T nrk_timer_int_start
00005e6e T nrk_timer_int_configure
00005eec T _nrk_os_timer_get
00005ef2 T __vector_13
00005ef2 T __vector_15
00005f58 T SIG_OUTPUT_COMPARE1A
00005f6c T __vector_32
00005fd0 T __vector_default
00006000 T _nrk_startup_error
0000604c T nrk_ext_int_enable
000060d4 T nrk_ext_int_disable
0000615c T nrk_ext_int_configure
00006276 T __vector_3
000062da T __vector_2
0000633e T __vector_1
000063a2 T __vector_9
00006406 T nrk_watchdog_check
00006414 T nrk_watchdog_reset
00006418 T nrk_watchdog_enable
00006438 T nrk_watchdog_disable
00006456 T nrk_battery_save
00006458 T nrk_sleep
00006470 T nrk_idle
00006486 T nrk_task_set_entry_function
0000648e T nrk_task_stk_init
000064e4 T nrk_stack_pointer_init
00006502 T nrk_stack_pointer_restore
00006510 T nrk_target_start
0000651a T nrk_task_set_stk
00006558 T nrk_start_high_ready_task
000065ae T __udivdi3
00007216 T vfprintf
000074a2 T __mulsi3
000074e0 T __udivmodhi4
000074e8 t __udivmodhi4_loop
000074f6 t __udivmodhi4_ep
00007508 T __divmodhi4
00007508 T _div
0000751c t __divmodhi4_neg2
00007522 t __divmodhi4_exit
00007524 t __divmodhi4_neg1
0000752e T __udivmodsi4
0000753a t __udivmodsi4_loop
00007554 t __udivmodsi4_ep
00007572 T __divmodsi4
00007586 t __divmodsi4_neg2
00007594 t __divmodsi4_exit
00007596 t __divmodsi4_neg1
000075a8 T __prologue_saves__
000075e0 T __epilogue_restores__
00007616 t do_rand
000076c4 T rand_r
000076ca T rand
000076d4 T srand
000076ea T strchr_P
00007700 T memcpy
00007712 T fdevopen
000077aa T fputc
00007802 T printf
00007826 T putchar
00007834 T puts
000078aa T sprintf
0000790a T __ultoa_invert
000079c6 T __eerd_byte_m128rfa1
000079d6 T __eewr_byte_m128rfa1
000079d8 T __eewr_r18_m128rfa1
000079f2 T calloc
00007a3e T malloc
00007b84 T free
00007cb2 T memset
00007cc0 T _exit
00007cc0 W exit
00007cc2 t __stop_program
00007cc4 A __data_load_start
00007cc4 T _etext
00007ffc A __data_load_end
00800200 D __data_start
0080038c D NRK_PORTA_0
0080038d D NRK_PORTA_1
0080038e D NRK_PORTA_2
0080038f D NRK_PORTA_3
00800390 D NRK_PORTA_4
00800391 D NRK_PORTA_5
00800392 D NRK_PORTA_6
00800393 D NRK_PORTA_7
00800394 D NRK_DEBUG_0
00800395 D NRK_DEBUG_1
00800396 D NRK_DEBUG_2
00800397 D NRK_DEBUG_3
00800398 D NRK_SPI_SS
00800399 D NRK_SCK
0080039a D NRK_MOSI
0080039b D NRK_MISO
0080039c D NRK_PORTB_0
0080039d D NRK_PORTB_1
0080039e D NRK_PORTB_2
0080039f D NRK_PORTB_3
008003a0 D NRK_PORTB_4
008003a1 D NRK_PORTB_5
008003a2 D NRK_PORTB_6
008003a3 D NRK_PORTB_7
008003a4 D NRK_PORTC_0
008003a5 D NRK_PORTC_1
008003a6 D NRK_PORTC_2
008003a7 D NRK_PORTC_3
008003a8 D NRK_PORTC_4
008003a9 D NRK_PORTC_5
008003aa D NRK_PORTC_6
008003ab D NRK_PORTC_7
008003ac D NRK_PORTD_0
008003ad D NRK_PORTD_1
008003ae D NRK_PORTD_2
008003af D NRK_PORTD_3
008003b0 D NRK_PORTD_4
008003b1 D NRK_PORTD_5
008003b2 D NRK_PORTD_6
008003b3 D NRK_PORTD_7
008003b4 D NRK_BUTTON
008003b5 D NRK_UART1_RXD
008003b6 D NRK_UART1_TXD
008003b7 D NRK_LED_0
008003b8 D NRK_LED_1
008003b9 D NRK_LED_2
008003ba D NRK_LED_3
008003bb D NRK_PORTE_0
008003bc D NRK_PORTE_1
008003bd D NRK_PORTE_2
008003be D NRK_PORTE_3
008003bf D NRK_PORTE_4
008003c0 D NRK_PORTE_5
008003c1 D NRK_PORTE_6
008003c2 D NRK_PORTE_7
008003c3 D NRK_UART0_RXD
008003c4 D NRK_UART0_TXD
008003c5 D NRK_ANT_0
008003c6 D NRK_ANT_1
008003c7 D NRK_PORTG_0
008003c8 D NRK_PORTG_1
008003c9 D NRK_PORTG_2
008003ca D NRK_PORTG_3
008003cb D NRK_PORTG_4
008003cc D NRK_PORTG_5
008003cd D NRK_PORTF_0
008003ce D NRK_PORTF_1
008003cf D NRK_PORTF_2
008003d0 D NRK_PORTF_3
008003d1 D NRK_PORTF_4
008003d2 D NRK_PORTF_5
008003d3 D NRK_PORTF_6
008003d4 D NRK_PORTF_7
008003d5 D NRK_ADC_INPUT_0
008003d6 D NRK_ADC_INPUT_1
008003d7 D NRK_ADC_INPUT_2
008003d8 D NRK_ADC_INPUT_3
008003d9 D NRK_ADC_INPUT_4
008003da D NRK_ADC_INPUT_5
008003db D NRK_ADC_INPUT_6
008003dc D NRK_ADC_INPUT_7
0080042e D __clz_tab
0080052e d next
00800532 D __malloc_margin
00800534 D __malloc_heap_start
00800536 D __malloc_heap_end
00800538 B __bss_start
00800538 D __data_end
00800538 D _edata
00800538 b bmac_task
0080055b b bmac_task_stack
008005db b rx_failure_cnt
008005df b tx_data_ready
008005e0 b rx_buf_empty
008005e1 b bmac_running
008005e2 b pkt_got_ack
008005e3 b g_chan
008005e4 b is_enabled
008005e5 b _bmac_check_period
008005ed b cca_active
008005ee b tx_reserve
008005ef b dummy_t
008005f7 B rx_start_func
008005f9 B rx_end_func
008005fb b uart_rx_buf_start
008005fd b uart_rx_buf_end
008005ff b uart_rx_buf
0080060f b uart_rx_signal
00800610 B node_buf
00800684 B error_task
00800685 B rx_node_id
00800687 B bmac_enable_signal
00800688 B bmac_rfTxInfo
0080068f B _nrk_signal_list
00800693 B bmac_rx_pkt_signal
00800694 B node_task_stack
00800714 B rx_buf
00800788 B tx_node_id
0080078a B nrk_kernel_stk_ptr
0080078c B NODE_TASK
008007af B tx_buf
00800823 B bmac_rfRxInfo
0080082f B error_num
00800830 B nrk_idle_task_stk
008008b0 B bmac_tx_pkt_done_signal
008008b1 B app_timer0_callback
008008b3 B _nrk_time_trigger
008008b4 B app_timer0_prescale
008008b5 B _nrk_prev_timer_val
008008b6 B eeprom_values
008008cc B B6
008008d0 B UT
008008d4 B X2
008008d8 B T
008008dc B B5
008008e0 B is_open
008008e1 B X1
008008e5 B channel
008008e6 B X3
008008ea B B4
008008ee B h_cnt
008008ef B B7
008008f3 B UP
008008f7 B P
008008fb B B3
008008ff B twst
00800900 B i2c_address
00800901 B rx_ctr
00800905 B radio_sem
00800907 B use_glossy
00800908 B mdmctrl0
0080090a B rfSettings
00800913 B curr_t
0080091b B tx_done
0080091c B ekey
0080092c B rf_ready
0080092d B target_t
00800935 B dkey
00800945 B tx_ctr
0080094b B rx_ready
0080094c B dummy_t
00800954 B _free_node
00800956 B nrk_task_TCB
00800a02 B next_next_wakeup
00800a04 B nrk_sem_list
00800a0a B nrk_task_init_cnt
00800a0b B nrk_wakeup_signal
00800a0c B nrk_high_ready_TCB
00800a0e B nrk_cur_task_prio
00800a0f B _nrk_cpu_state
00800a10 B _head_node
00800a12 B nrk_system_time
00800a1a B _nrk_resource_cnt
00800a1b B nrk_cur_task_TCB
00800a1d B nrk_high_ready_prio
00800a1e B _nrk_readyQ
00800a37 B t
00800a38 B _nrk_driver_count
00800a39 B nrk_drivers
00800a3d B nrk_driver_init
00800a3e B ext_int1_callback
00800a40 B ext_int0_callback
00800a42 B ext_int2_callback
00800a44 B pc_int0_callback
00800a46 B __iob
00800a4c B __brkval
00800a4e B __flp
00800a50 B __bss_end
00800a50 N __heap_start
00800a50 N _end
00810000 N __eeprom_end
